EESchema Schematic File Version 4
LIBS:meltyControllerGen2_2-cache
EELAYER 26 0
EELAYER END
$Descr A4 11693 8268
encoding utf-8
Sheet 3 3
Title ""
Date ""
Rev ""
Comp ""
Comment1 ""
Comment2 ""
Comment3 ""
Comment4 ""
$EndDescr
$Comp
L Passives:Resistor R?
U 1 1 5CCA7992
P 6800 3050
AR Path="/5CCA7992" Ref="R?"  Part="1" 
AR Path="/5CC7450C/5CCA7992" Ref="R16"  Part="1" 
AR Path="/5D04372C/5CCA7992" Ref="R15"  Part="1" 
F 0 "R15" H 6800 3245 50  0000 C CNN
F 1 "47k" H 6800 3154 50  0000 C CNN
F 2 "Resistors_SMD:R_0402" H 6800 2980 60  0001 C CNN
F 3 "Passives.lib" H 6800 2980 60  0001 C CNN
	1    6800 3050
	-1   0    0    -1  
$EndComp
$Comp
L power:GND #PWR?
U 1 1 5CCA79B7
P 6150 3450
AR Path="/5CCA79B7" Ref="#PWR?"  Part="1" 
AR Path="/5CC7450C/5CCA79B7" Ref="#PWR?"  Part="1" 
AR Path="/5D04372C/5CCA79B7" Ref="#PWR0148"  Part="1" 
F 0 "#PWR0148" H 6150 3200 50  0001 C CNN
F 1 "GND" H 6155 3277 50  0000 C CNN
F 2 "" H 6150 3450 50  0001 C CNN
F 3 "" H 6150 3450 50  0001 C CNN
	1    6150 3450
	0    1    -1   0   
$EndComp
$Comp
L Passives:Resistor R?
U 1 1 5CCA79C6
P 6050 3850
AR Path="/5CCA79C6" Ref="R?"  Part="1" 
AR Path="/5CC7450C/5CCA79C6" Ref="R13"  Part="1" 
AR Path="/5D04372C/5CCA79C6" Ref="R12"  Part="1" 
F 0 "R12" H 6050 4045 50  0000 C CNN
F 1 "1k" H 6050 3954 50  0000 C CNN
F 2 "Resistors_SMD:R_0402" H 6050 3780 60  0001 C CNN
F 3 "Passives.lib" H 6050 3780 60  0001 C CNN
	1    6050 3850
	0    1    -1   0   
$EndComp
$Comp
L power:GND #PWR?
U 1 1 5CCA79CD
P 6050 3950
AR Path="/5CCA79CD" Ref="#PWR?"  Part="1" 
AR Path="/5CC7450C/5CCA79CD" Ref="#PWR?"  Part="1" 
AR Path="/5D04372C/5CCA79CD" Ref="#PWR0149"  Part="1" 
F 0 "#PWR0149" H 6050 3700 50  0001 C CNN
F 1 "GND" H 6055 3777 50  0000 C CNN
F 2 "" H 6050 3950 50  0001 C CNN
F 3 "" H 6050 3950 50  0001 C CNN
	1    6050 3950
	-1   0    0    -1  
$EndComp
$Comp
L diode:1N5819 D?
U 1 1 5CCA79D5
P 7500 3550
AR Path="/5CCA79D5" Ref="D?"  Part="1" 
AR Path="/5CC7450C/5CCA79D5" Ref="D4"  Part="1" 
AR Path="/5D04372C/5CCA79D5" Ref="D4"  Part="1" 
F 0 "D4" V 7546 3471 50  0000 R CNN
F 1 "1N5819" V 7455 3471 50  0000 R CNN
F 2 "Diodes_SMD:D_SOD-123" H 7500 3375 50  0001 C CNN
F 3 "http://www.vishay.com/docs/88525/1n5817.pdf" H 7500 3550 50  0001 C CNN
	1    7500 3550
	-1   0    0    1   
$EndComp
$Comp
L Passives:CapNonPolar C?
U 1 1 5CCC120E
P 7750 3750
AR Path="/5CCC120E" Ref="C?"  Part="1" 
AR Path="/5CC7450C/5CCC120E" Ref="C29"  Part="1" 
AR Path="/5D04372C/5CCC120E" Ref="C24"  Part="1" 
F 0 "C24" H 7750 3916 39  0000 C CNN
F 1 "10nF" H 7750 3841 39  0000 C CNN
F 2 "Capacitors_SMD:C_0402" H 7700 3800 60  0001 C CNN
F 3 "" H 7700 3800 60  0001 C CNN
	1    7750 3750
	0    1    1    0   
$EndComp
$Comp
L power:GND #PWR?
U 1 1 5CCC1215
P 7750 3850
AR Path="/5CCC1215" Ref="#PWR?"  Part="1" 
AR Path="/5CC7450C/5CCC1215" Ref="#PWR?"  Part="1" 
AR Path="/5D04372C/5CCC1215" Ref="#PWR0151"  Part="1" 
F 0 "#PWR0151" H 7750 3600 50  0001 C CNN
F 1 "GND" V 7755 3722 50  0000 R CNN
F 2 "" H 7750 3850 50  0001 C CNN
F 3 "" H 7750 3850 50  0001 C CNN
	1    7750 3850
	1    0    0    -1  
$EndComp
$Comp
L Passives:Resistor R?
U 1 1 5CCC121C
P 8050 3750
AR Path="/5CCC121C" Ref="R?"  Part="1" 
AR Path="/5CC7450C/5CCC121C" Ref="R15"  Part="1" 
AR Path="/5D04372C/5CCC121C" Ref="R16"  Part="1" 
F 0 "R16" H 8050 3945 50  0000 C CNN
F 1 "100k" H 8050 3854 50  0000 C CNN
F 2 "Resistors_SMD:R_0402" H 8050 3680 60  0001 C CNN
F 3 "Passives.lib" H 8050 3680 60  0001 C CNN
	1    8050 3750
	0    1    1    0   
$EndComp
$Comp
L power:GND #PWR?
U 1 1 5CCC1224
P 8050 3850
AR Path="/5CCC1224" Ref="#PWR?"  Part="1" 
AR Path="/5CC7450C/5CCC1224" Ref="#PWR?"  Part="1" 
AR Path="/5D04372C/5CCC1224" Ref="#PWR0152"  Part="1" 
F 0 "#PWR0152" H 8050 3600 50  0001 C CNN
F 1 "GND" V 8055 3722 50  0000 R CNN
F 2 "" H 8050 3850 50  0001 C CNN
F 3 "" H 8050 3850 50  0001 C CNN
	1    8050 3850
	1    0    0    -1  
$EndComp
Wire Wire Line
	6550 3450 6400 3450
Wire Wire Line
	6050 3750 6050 3650
Connection ~ 6050 3650
Wire Wire Line
	6050 3650 5950 3650
Wire Wire Line
	6700 3050 6400 3050
Wire Wire Line
	6400 3050 6400 3450
Connection ~ 6400 3450
Wire Wire Line
	6400 3450 6350 3450
Wire Wire Line
	6900 3050 7350 3050
Wire Wire Line
	7350 3050 7350 3550
Wire Wire Line
	7350 3550 7150 3550
Connection ~ 7350 3550
Wire Wire Line
	7750 3650 7750 3550
Wire Wire Line
	7750 3550 7650 3550
Wire Wire Line
	7750 3550 8050 3550
Wire Wire Line
	8050 3550 8050 3650
Connection ~ 7750 3550
Wire Wire Line
	8150 3550 8050 3550
Text Notes 7650 3300 0    100  ~ 0
Peak Detector
Text Notes 6250 4400 0    100  ~ 0
High Pass Filter
Text HLabel 8150 3550 2    50   Output ~ 0
BP_OUT
$Comp
L Passives:Resistor R?
U 1 1 5CF67575
P 6250 3450
AR Path="/5CF67575" Ref="R?"  Part="1" 
AR Path="/5CC7450C/5CF67575" Ref="C30"  Part="1" 
AR Path="/5D04372C/5CF67575" Ref="R13"  Part="1" 
F 0 "R13" H 6250 3645 50  0000 C CNN
F 1 "3k" H 6250 3554 50  0000 C CNN
F 2 "Resistors_SMD:R_0402" H 6250 3380 60  0001 C CNN
F 3 "Passives.lib" H 6250 3380 60  0001 C CNN
	1    6250 3450
	-1   0    0    -1  
$EndComp
$Comp
L Passives:CapNonPolar C?
U 1 1 5CF67A03
P 5850 3650
AR Path="/5CF67A03" Ref="C?"  Part="1" 
AR Path="/5CC7450C/5CF67A03" Ref="R14"  Part="1" 
AR Path="/5D04372C/5CF67A03" Ref="C21"  Part="1" 
F 0 "C21" H 5850 3816 39  0000 C CNN
F 1 "10nF" H 5850 3741 39  0000 C CNN
F 2 "Capacitors_SMD:C_0402" H 5800 3700 60  0001 C CNN
F 3 "" H 5800 3700 60  0001 C CNN
	1    5850 3650
	1    0    0    -1  
$EndComp
Wire Wire Line
	6050 3650 6550 3650
$Comp
L Passives:Resistor R?
U 1 1 5D357076
P 4800 3000
AR Path="/5D357076" Ref="R?"  Part="1" 
AR Path="/5CC7450C/5D357076" Ref="R?"  Part="1" 
AR Path="/5D04372C/5D357076" Ref="R9"  Part="1" 
F 0 "R9" H 4800 3195 50  0000 C CNN
F 1 "100k" H 4800 3104 50  0000 C CNN
F 2 "Resistors_SMD:R_0402" H 4800 2930 60  0001 C CNN
F 3 "Passives.lib" H 4800 2930 60  0001 C CNN
	1    4800 3000
	-1   0    0    1   
$EndComp
$Comp
L Passives:CapNonPolar C?
U 1 1 5D3570F0
P 4800 2850
AR Path="/5D3570F0" Ref="C?"  Part="1" 
AR Path="/5CC7450C/5D3570F0" Ref="C?"  Part="1" 
AR Path="/5D04372C/5D3570F0" Ref="C20"  Part="1" 
F 0 "C20" H 4800 3016 39  0000 C CNN
F 1 "5pF" H 4800 2941 39  0000 C CNN
F 2 "Capacitors_SMD:C_0402" H 4750 2900 60  0001 C CNN
F 3 "" H 4750 2900 60  0001 C CNN
	1    4800 2850
	1    0    0    -1  
$EndComp
Wire Wire Line
	5150 3650 5350 3650
$Comp
L Passives:CapNonPolar C?
U 1 1 5D3625CA
P 6000 5050
AR Path="/5D3625CA" Ref="C?"  Part="1" 
AR Path="/5CC7450C/5D3625CA" Ref="C?"  Part="1" 
AR Path="/5D04372C/5D3625CA" Ref="C22"  Part="1" 
F 0 "C22" H 6000 5216 39  0000 C CNN
F 1 "0.1uF" H 6000 5141 39  0000 C CNN
F 2 "Capacitors_SMD:C_0402" H 5950 5100 60  0001 C CNN
F 3 "" H 5950 5100 60  0001 C CNN
	1    6000 5050
	0    1    1    0   
$EndComp
$Comp
L power:+3.3V #PWR?
U 1 1 5D3626E1
P 6000 4900
AR Path="/5D3626E1" Ref="#PWR?"  Part="1" 
AR Path="/5CC7450C/5D3626E1" Ref="#PWR?"  Part="1" 
AR Path="/5D04372C/5D3626E1" Ref="#PWR0163"  Part="1" 
F 0 "#PWR0163" H 6000 4750 50  0001 C CNN
F 1 "+3.3V" V 6015 5028 50  0000 L CNN
F 2 "" H 6000 4900 50  0001 C CNN
F 3 "" H 6000 4900 50  0001 C CNN
	1    6000 4900
	1    0    0    -1  
$EndComp
$Comp
L power:GND #PWR?
U 1 1 5D36272C
P 6000 5200
AR Path="/5D36272C" Ref="#PWR?"  Part="1" 
AR Path="/5CC7450C/5D36272C" Ref="#PWR?"  Part="1" 
AR Path="/5D04372C/5D36272C" Ref="#PWR0164"  Part="1" 
F 0 "#PWR0164" H 6000 4950 50  0001 C CNN
F 1 "GND" H 6005 5027 50  0000 C CNN
F 2 "" H 6000 5200 50  0001 C CNN
F 3 "" H 6000 5200 50  0001 C CNN
	1    6000 5200
	-1   0    0    -1  
$EndComp
$Comp
L device:D_Photo D?
U 1 1 5D365DA5
P 3850 3850
AR Path="/5D365DA5" Ref="D?"  Part="1" 
AR Path="/5CC7450C/5D365DA5" Ref="D?"  Part="1" 
AR Path="/5D04372C/5D365DA5" Ref="D2"  Part="1" 
F 0 "D2" H 3800 4145 50  0000 C CNN
F 1 "IN-S32HSNPD" H 3800 4054 50  0000 C CNN
F 2 "U_LEDs:LED side mount 2-SMD 2.1x0.8" H 3800 3850 50  0001 C CNN
F 3 "~" H 3800 3850 50  0001 C CNN
	1    3850 3850
	0    1    1    0   
$EndComp
Wire Wire Line
	4700 3000 4450 3000
Wire Wire Line
	4450 3000 4450 3550
Wire Wire Line
	4450 3550 4550 3550
Wire Wire Line
	4450 3550 3850 3550
Wire Wire Line
	3850 3550 3850 3650
Connection ~ 4450 3550
$Comp
L power:GND #PWR?
U 1 1 5D36CB06
P 3850 4100
AR Path="/5D36CB06" Ref="#PWR?"  Part="1" 
AR Path="/5CC7450C/5D36CB06" Ref="#PWR?"  Part="1" 
AR Path="/5D04372C/5D36CB06" Ref="#PWR0165"  Part="1" 
F 0 "#PWR0165" H 3850 3850 50  0001 C CNN
F 1 "GND" H 3855 3927 50  0000 C CNN
F 2 "" H 3850 4100 50  0001 C CNN
F 3 "" H 3850 4100 50  0001 C CNN
	1    3850 4100
	-1   0    0    -1  
$EndComp
$Comp
L power:GND #PWR?
U 1 1 5D36CB53
P 4450 3800
AR Path="/5D36CB53" Ref="#PWR?"  Part="1" 
AR Path="/5CC7450C/5D36CB53" Ref="#PWR?"  Part="1" 
AR Path="/5D04372C/5D36CB53" Ref="#PWR0166"  Part="1" 
F 0 "#PWR0166" H 4450 3550 50  0001 C CNN
F 1 "GND" H 4455 3627 50  0000 C CNN
F 2 "" H 4450 3800 50  0001 C CNN
F 3 "" H 4450 3800 50  0001 C CNN
	1    4450 3800
	-1   0    0    -1  
$EndComp
Wire Wire Line
	4450 3800 4450 3750
Wire Wire Line
	4450 3750 4550 3750
Wire Wire Line
	4450 3000 4450 2850
Wire Wire Line
	4450 2850 4700 2850
Connection ~ 4450 3000
Wire Wire Line
	4900 3000 5350 3000
Wire Wire Line
	5350 3000 5350 3650
Connection ~ 5350 3650
Wire Wire Line
	5350 3650 5750 3650
Wire Wire Line
	4900 2850 5350 2850
Wire Wire Line
	5350 2850 5350 3000
Connection ~ 5350 3000
$Comp
L Amplifiers:TLV2462 U10
U 1 1 5D389414
P 6800 3550
F 0 "U10" H 6850 3183 50  0000 C CNN
F 1 "TLV2462" H 6850 3274 50  0000 C CNN
F 2 "TSSOP:TSSOP-8_0.65_pitch" H 6700 4250 50  0001 C CNN
F 3 "" H 6700 4250 50  0001 C CNN
	1    6800 3550
	1    0    0    1   
$EndComp
$Comp
L Amplifiers:TLV2462 U10
U 2 1 5D3894CE
P 4800 3650
F 0 "U10" H 4850 3283 50  0000 C CNN
F 1 "TLV2462" H 4850 3374 50  0000 C CNN
F 2 "TSSOP:TSSOP-8_0.65_pitch" H 4700 4350 50  0001 C CNN
F 3 "" H 4700 4350 50  0001 C CNN
	2    4800 3650
	1    0    0    1   
$EndComp
$Comp
L Amplifiers:TLV2462 U10
U 3 1 5D389564
P 5500 5050
F 0 "U10" H 5556 5375 50  0000 C CNN
F 1 "TLV2462" H 5556 5284 50  0000 C CNN
F 2 "TSSOP:TSSOP-8_0.65_pitch" H 5400 5750 50  0001 C CNN
F 3 "" H 5400 5750 50  0001 C CNN
	3    5500 5050
	1    0    0    -1  
$EndComp
Wire Wire Line
	6000 4950 5800 4950
Wire Wire Line
	6000 5150 5800 5150
Wire Wire Line
	6000 5150 6000 5200
Connection ~ 6000 5150
Wire Wire Line
	6000 4950 6000 4900
Connection ~ 6000 4950
Text Notes 4200 4400 0    100  ~ 0
Transimpedance Amp\n
Connection ~ 8050 3550
Wire Wire Line
	3850 3950 3850 4100
$EndSCHEMATC
