EESchema Schematic File Version 4
LIBS:meltyControllerGen2_2-cache
EELAYER 26 0
EELAYER END
$Descr A4 11693 8268
encoding utf-8
Sheet 1 3
Title ""
Date ""
Rev ""
Comp ""
Comment1 ""
Comment2 ""
Comment3 ""
Comment4 ""
$EndDescr
$Comp
L MCU_ST_STM32F4:STM32F446RETx U2
U 1 1 5D02BF82
P 5650 3700
F 0 "U2" H 5100 1950 50  0000 C CNN
F 1 "STM32F446RETx" H 5100 1850 50  0000 C CNN
F 2 "Package_QFP:LQFP-64_10x10mm_P0.5mm" H 5050 2000 50  0001 R CNN
F 3 "http://www.st.com/st-web-ui/static/active/en/resource/technical/document/datasheet/DM00141306.pdf" H 5650 3700 50  0001 C CNN
	1    5650 3700
	1    0    0    -1  
$EndComp
$Comp
L Passives:CapNonPolar C11
U 1 1 5D02C104
P 6150 1900
F 0 "C11" H 6150 2116 39  0000 C CNN
F 1 "0.1uF" H 6150 2041 39  0000 C CNN
F 2 "Capacitors_SMD:C_0402" H 6100 1950 60  0001 C CNN
F 3 "" H 6100 1950 60  0001 C CNN
	1    6150 1900
	1    0    0    -1  
$EndComp
$Comp
L Passives:CapNonPolar C10
U 1 1 5D02C168
P 6150 1550
F 0 "C10" H 6150 1766 39  0000 C CNN
F 1 "0.1uF" H 6150 1691 39  0000 C CNN
F 2 "Capacitors_SMD:C_0402" H 6100 1600 60  0001 C CNN
F 3 "" H 6100 1600 60  0001 C CNN
	1    6150 1550
	1    0    0    -1  
$EndComp
$Comp
L Passives:CapNonPolar C9
U 1 1 5D02C194
P 6150 1200
F 0 "C9" H 6150 1416 39  0000 C CNN
F 1 "0.1uF" H 6150 1341 39  0000 C CNN
F 2 "Capacitors_SMD:C_0402" H 6100 1250 60  0001 C CNN
F 3 "" H 6100 1250 60  0001 C CNN
	1    6150 1200
	1    0    0    -1  
$EndComp
$Comp
L Passives:CapNonPolar C8
U 1 1 5D02C228
P 5250 1900
F 0 "C8" H 5250 2116 39  0000 C CNN
F 1 "0.1uF" H 5250 2041 39  0000 C CNN
F 2 "Capacitors_SMD:C_0402" H 5200 1950 60  0001 C CNN
F 3 "" H 5200 1950 60  0001 C CNN
	1    5250 1900
	1    0    0    -1  
$EndComp
$Comp
L Passives:CapNonPolar C7
U 1 1 5D02C260
P 5250 1550
F 0 "C7" H 5250 1766 39  0000 C CNN
F 1 "0.1uF" H 5250 1691 39  0000 C CNN
F 2 "Capacitors_SMD:C_0402" H 5200 1600 60  0001 C CNN
F 3 "" H 5200 1600 60  0001 C CNN
	1    5250 1550
	1    0    0    -1  
$EndComp
$Comp
L Passives:CapNonPolar C6
U 1 1 5D02C286
P 5250 1200
F 0 "C6" H 5250 1416 39  0000 C CNN
F 1 "0.1uF" H 5250 1341 39  0000 C CNN
F 2 "Capacitors_SMD:C_0402" H 5200 1250 60  0001 C CNN
F 3 "" H 5200 1250 60  0001 C CNN
	1    5250 1200
	1    0    0    -1  
$EndComp
Wire Wire Line
	5950 2000 5950 1900
Wire Wire Line
	5950 1900 6050 1900
Wire Wire Line
	5850 2000 5850 1550
Wire Wire Line
	5850 1550 6050 1550
Wire Wire Line
	5950 1900 5950 950 
Wire Wire Line
	5950 950  5850 950 
Wire Wire Line
	5450 950  5450 1900
Connection ~ 5950 1900
Wire Wire Line
	5850 1550 5850 950 
Connection ~ 5850 1550
Connection ~ 5850 950 
Wire Wire Line
	5850 950  5750 950 
Wire Wire Line
	5750 2000 5750 1200
Wire Wire Line
	5750 1200 6050 1200
Wire Wire Line
	5550 2000 5550 1550
Wire Wire Line
	5550 1550 5350 1550
Wire Wire Line
	5450 1900 5350 1900
Connection ~ 5450 1900
Wire Wire Line
	5450 1900 5450 2000
Wire Wire Line
	5650 2000 5650 1200
Wire Wire Line
	5650 1200 5350 1200
Wire Wire Line
	5750 1200 5750 950 
Connection ~ 5750 1200
Connection ~ 5750 950 
Wire Wire Line
	5750 950  5700 950 
Wire Wire Line
	5650 1200 5650 950 
Connection ~ 5650 1200
Connection ~ 5650 950 
Wire Wire Line
	5650 950  5550 950 
Wire Wire Line
	5550 1550 5550 950 
Connection ~ 5550 1550
Connection ~ 5550 950 
Wire Wire Line
	5550 950  5450 950 
Wire Wire Line
	6250 1200 6400 1200
Wire Wire Line
	6400 1200 6400 1550
Wire Wire Line
	6250 1900 6400 1900
Connection ~ 6400 1900
Wire Wire Line
	6400 1900 6400 1950
Wire Wire Line
	6250 1550 6400 1550
Connection ~ 6400 1550
Wire Wire Line
	6400 1550 6400 1900
Wire Wire Line
	5150 1200 4900 1200
Wire Wire Line
	4900 1200 4900 1550
Wire Wire Line
	5150 1900 4900 1900
Connection ~ 4900 1900
Wire Wire Line
	4900 1900 4900 1950
Wire Wire Line
	5150 1550 4900 1550
Connection ~ 4900 1550
Wire Wire Line
	4900 1550 4900 1900
$Comp
L power:GND #PWR0101
U 1 1 5D02E35F
P 6400 1950
F 0 "#PWR0101" H 6400 1700 50  0001 C CNN
F 1 "GND" H 6405 1777 50  0000 C CNN
F 2 "" H 6400 1950 50  0001 C CNN
F 3 "" H 6400 1950 50  0001 C CNN
	1    6400 1950
	1    0    0    -1  
$EndComp
$Comp
L power:GND #PWR0102
U 1 1 5D02E38F
P 4900 1950
F 0 "#PWR0102" H 4900 1700 50  0001 C CNN
F 1 "GND" H 4905 1777 50  0000 C CNN
F 2 "" H 4900 1950 50  0001 C CNN
F 3 "" H 4900 1950 50  0001 C CNN
	1    4900 1950
	1    0    0    -1  
$EndComp
$Comp
L power:+3.3V #PWR0103
U 1 1 5D030D15
P 5700 850
F 0 "#PWR0103" H 5700 700 50  0001 C CNN
F 1 "+3.3V" H 5715 1023 50  0000 C CNN
F 2 "" H 5700 850 50  0001 C CNN
F 3 "" H 5700 850 50  0001 C CNN
	1    5700 850 
	1    0    0    -1  
$EndComp
Wire Wire Line
	5700 850  5700 950 
Connection ~ 5700 950 
Wire Wire Line
	5700 950  5650 950 
$Comp
L ModuleHeaders:XBee M3
U 1 1 5D031351
P 9350 5150
F 0 "M3" H 9350 6037 60  0000 C CNN
F 1 "XBee" H 9350 5931 60  0000 C CNN
F 2 "ModuleMounts:XBee_SMD" H 9240 5240 60  0001 C CNN
F 3 "" H 9240 5240 60  0001 C CNN
	1    9350 5150
	1    0    0    -1  
$EndComp
$Comp
L Sensors:H3LIS331DL U1
U 1 1 5D031485
P 1800 6050
F 0 "U1" H 1800 6615 50  0000 C CNN
F 1 "H3LIS331DL" H 1800 6524 50  0000 C CNN
F 2 "LGA:LGA_16_3x3" H 1800 6050 50  0001 C CNN
F 3 "" H 1800 6050 50  0001 C CNN
	1    1800 6050
	1    0    0    -1  
$EndComp
$Comp
L Passives:CapNonPolar C2
U 1 1 5D0317D6
P 2500 6050
F 0 "C2" H 2500 6266 39  0000 C CNN
F 1 "0.1uF" H 2500 6191 39  0000 C CNN
F 2 "Capacitors_SMD:C_0402" H 2450 6100 60  0001 C CNN
F 3 "" H 2450 6100 60  0001 C CNN
	1    2500 6050
	1    0    0    -1  
$EndComp
$Comp
L Passives:CapNonPolar C1
U 1 1 5D031A80
P 2500 5750
F 0 "C1" H 2500 5966 39  0000 C CNN
F 1 "0.1uF" H 2500 5891 39  0000 C CNN
F 2 "Capacitors_SMD:C_0402" H 2450 5800 60  0001 C CNN
F 3 "" H 2450 5800 60  0001 C CNN
	1    2500 5750
	1    0    0    -1  
$EndComp
Wire Wire Line
	2400 6050 2350 6050
Wire Wire Line
	2350 6050 2350 5850
Wire Wire Line
	2400 5750 2350 5750
Connection ~ 2350 5750
Wire Wire Line
	2300 5750 2350 5750
Wire Wire Line
	2300 5850 2350 5850
Connection ~ 2350 5850
Wire Wire Line
	2350 5850 2350 5750
Wire Wire Line
	2300 6050 2350 6050
Connection ~ 2350 6050
Wire Wire Line
	2600 5750 2700 5750
Wire Wire Line
	2700 5750 2700 6050
Wire Wire Line
	2600 6050 2700 6050
Connection ~ 2700 6050
Wire Wire Line
	2700 6050 2700 6150
$Comp
L power:GND #PWR0104
U 1 1 5D03587F
P 2700 6150
F 0 "#PWR0104" H 2700 5900 50  0001 C CNN
F 1 "GND" H 2705 5977 50  0000 C CNN
F 2 "" H 2700 6150 50  0001 C CNN
F 3 "" H 2700 6150 50  0001 C CNN
	1    2700 6150
	1    0    0    -1  
$EndComp
$Comp
L power:+3.3V #PWR0105
U 1 1 5D0358D4
P 2350 5650
F 0 "#PWR0105" H 2350 5500 50  0001 C CNN
F 1 "+3.3V" H 2365 5823 50  0000 C CNN
F 2 "" H 2350 5650 50  0001 C CNN
F 3 "" H 2350 5650 50  0001 C CNN
	1    2350 5650
	1    0    0    -1  
$EndComp
Wire Wire Line
	2350 5650 2350 5750
Wire Wire Line
	1700 6450 1700 6500
Wire Wire Line
	1700 6500 1800 6500
Wire Wire Line
	2100 6500 2100 6450
Wire Wire Line
	2000 6450 2000 6500
Connection ~ 2000 6500
Wire Wire Line
	2000 6500 2100 6500
Wire Wire Line
	1900 6450 1900 6500
Connection ~ 1900 6500
Wire Wire Line
	1900 6500 2000 6500
Wire Wire Line
	1800 6450 1800 6500
Connection ~ 1800 6500
Wire Wire Line
	1800 6500 1900 6500
Wire Wire Line
	1900 6500 1900 6550
$Comp
L power:GND #PWR0106
U 1 1 5D03A4AA
P 1900 6550
F 0 "#PWR0106" H 1900 6300 50  0001 C CNN
F 1 "GND" H 1905 6377 50  0000 C CNN
F 2 "" H 1900 6550 50  0001 C CNN
F 3 "" H 1900 6550 50  0001 C CNN
	1    1900 6550
	1    0    0    -1  
$EndComp
Text Label 800  5750 0    50   ~ 0
I2C_SCL
Text Label 800  5850 0    50   ~ 0
I2C_SDA
Wire Wire Line
	1300 6050 1200 6050
Wire Wire Line
	1200 6050 1200 6250
Wire Wire Line
	1050 5950 1050 6250
Wire Wire Line
	1050 5950 1300 5950
$Comp
L power:GND #PWR0107
U 1 1 5D03EDFD
P 1050 6250
F 0 "#PWR0107" H 1050 6000 50  0001 C CNN
F 1 "GND" H 1055 6077 50  0000 C CNN
F 2 "" H 1050 6250 50  0001 C CNN
F 3 "" H 1050 6250 50  0001 C CNN
	1    1050 6250
	1    0    0    -1  
$EndComp
$Comp
L power:+3.3V #PWR0108
U 1 1 5D03EE8C
P 1200 6250
F 0 "#PWR0108" H 1200 6100 50  0001 C CNN
F 1 "+3.3V" H 1215 6423 50  0000 C CNN
F 2 "" H 1200 6250 50  0001 C CNN
F 3 "" H 1200 6250 50  0001 C CNN
	1    1200 6250
	-1   0    0    1   
$EndComp
Wire Wire Line
	800  5850 1300 5850
Wire Wire Line
	800  5750 1300 5750
$Comp
L Connector:Conn_ARM_JTAG_SWD_10 J1
U 1 1 5D042F46
P 5650 6650
F 0 "J1" H 5210 6696 50  0000 R CNN
F 1 "Conn_ARM_JTAG_SWD_10" H 5210 6605 50  0000 R CNN
F 2 "ProgrammingHeaders:Pin_Header_Straight_2x05_Pitch1.27mm_SMD" H 5700 6100 50  0001 L TNN
F 3 "http://infocenter.arm.com/help/topic/com.arm.doc.faqs/attached/13634/cortex_debug_connectors.pdf" V 5300 5400 50  0001 C CNN
	1    5650 6650
	1    0    0    -1  
$EndComp
$Comp
L ModuleHeaders:Traco_Power_Module M1
U 1 1 5D043167
P 2750 1900
F 0 "M1" H 2977 1946 50  0000 L CNN
F 1 "Traco_Power_Module" H 2977 1855 50  0000 L CNN
F 2 "ModuleMounts:TracoPowerModule" H 2750 1900 20  0001 C CNN
F 3 "" H 2750 1900 20  0001 C CNN
	1    2750 1900
	1    0    0    -1  
$EndComp
$Sheet
S 8750 1250 650  1000
U 5D0435EE
F0 "LEDs" 50
F1 "LEDs.sch" 50
F2 "R" I L 8750 1550 50 
F3 "G" I L 8750 1650 50 
F4 "B" I L 8750 1750 50 
$EndSheet
$Sheet
S 8700 3200 600  200 
U 5D04372C
F0 "Infrared" 50
F1 "Infrared.sch" 50
F2 "BP_OUT" O R 9300 3300 50 
$EndSheet
Wire Wire Line
	6150 6350 6450 6350
Text Label 6200 6350 0    50   ~ 0
~RESET~
Wire Wire Line
	6150 6550 6450 6550
Wire Wire Line
	6150 6650 6450 6650
Wire Wire Line
	6150 6750 6450 6750
Wire Wire Line
	6150 6850 6450 6850
Wire Wire Line
	5550 7250 5550 7300
Wire Wire Line
	5550 7300 5600 7300
Wire Wire Line
	5650 7300 5650 7250
Wire Wire Line
	5600 7300 5600 7350
Connection ~ 5600 7300
Wire Wire Line
	5600 7300 5650 7300
$Comp
L power:GND #PWR0109
U 1 1 5D07FFBF
P 5600 7350
F 0 "#PWR0109" H 5600 7100 50  0001 C CNN
F 1 "GND" H 5605 7177 50  0000 C CNN
F 2 "" H 5600 7350 50  0001 C CNN
F 3 "" H 5600 7350 50  0001 C CNN
	1    5600 7350
	1    0    0    -1  
$EndComp
$Comp
L power:+3.3V #PWR0110
U 1 1 5D08008E
P 5650 6050
F 0 "#PWR0110" H 5650 5900 50  0001 C CNN
F 1 "+3.3V" H 5665 6223 50  0000 C CNN
F 2 "" H 5650 6050 50  0001 C CNN
F 3 "" H 5650 6050 50  0001 C CNN
	1    5650 6050
	1    0    0    -1  
$EndComp
Text Label 6200 6550 0    50   ~ 0
JTCK_SWCLK
Text Label 6200 6650 0    50   ~ 0
JTMS_SWDIO
Text Label 6200 6750 0    50   ~ 0
JTDO_TRACES
Text Label 6200 6850 0    50   ~ 0
JTDI
Wire Wire Line
	8650 4850 8300 4850
Wire Wire Line
	8650 4950 8300 4950
Text Label 8300 4850 0    50   ~ 0
USART_RX
Text Label 8300 4950 0    50   ~ 0
USART_TX
$Comp
L power:+3.3V #PWR0111
U 1 1 5D087D41
P 8550 4650
F 0 "#PWR0111" H 8550 4500 50  0001 C CNN
F 1 "+3.3V" H 8565 4823 50  0000 C CNN
F 2 "" H 8550 4650 50  0001 C CNN
F 3 "" H 8550 4650 50  0001 C CNN
	1    8550 4650
	1    0    0    -1  
$EndComp
Wire Wire Line
	8550 4650 8550 4750
Wire Wire Line
	8550 4750 8650 4750
Wire Wire Line
	8650 5650 8550 5650
Wire Wire Line
	8550 5650 8550 5750
$Comp
L power:GND #PWR0112
U 1 1 5D08BA22
P 8550 5750
F 0 "#PWR0112" H 8550 5500 50  0001 C CNN
F 1 "GND" H 8555 5577 50  0000 C CNN
F 2 "" H 8550 5750 50  0001 C CNN
F 3 "" H 8550 5750 50  0001 C CNN
	1    8550 5750
	1    0    0    -1  
$EndComp
Wire Wire Line
	2550 1800 2450 1800
Wire Wire Line
	2450 1800 2450 1500
Text Label 4550 2200 0    50   ~ 0
~RESET~
$Comp
L Passives:Resistor R2
U 1 1 5D3D232B
P 2650 1500
AR Path="/5D3D232B" Ref="R2"  Part="1" 
AR Path="/5CC7450C/5D3D232B" Ref="R?"  Part="1" 
AR Path="/5D04372C/5D3D232B" Ref="R?"  Part="1" 
F 0 "R2" H 2650 1695 50  0000 C CNN
F 1 "40k" H 2650 1604 50  0000 C CNN
F 2 "Resistors_SMD:R_0402" H 2650 1430 60  0001 C CNN
F 3 "Passives.lib" H 2650 1430 60  0001 C CNN
	1    2650 1500
	-1   0    0    -1  
$EndComp
$Comp
L Passives:Resistor R4
U 1 1 5D3D4CD9
P 2950 1500
AR Path="/5D3D4CD9" Ref="R4"  Part="1" 
AR Path="/5CC7450C/5D3D4CD9" Ref="R?"  Part="1" 
AR Path="/5D04372C/5D3D4CD9" Ref="R?"  Part="1" 
F 0 "R4" H 2950 1695 50  0000 C CNN
F 1 "10k" H 2950 1604 50  0000 C CNN
F 2 "Resistors_SMD:R_0402" H 2950 1430 60  0001 C CNN
F 3 "Passives.lib" H 2950 1430 60  0001 C CNN
	1    2950 1500
	-1   0    0    -1  
$EndComp
$Comp
L Passives:Resistor R5
U 1 1 5D3DA259
P 4450 2000
AR Path="/5D3DA259" Ref="R5"  Part="1" 
AR Path="/5CC7450C/5D3DA259" Ref="R?"  Part="1" 
AR Path="/5D04372C/5D3DA259" Ref="R?"  Part="1" 
F 0 "R5" H 4450 2195 50  0000 C CNN
F 1 "10k" H 4450 2104 50  0000 C CNN
F 2 "Resistors_SMD:R_0402" H 4450 1930 60  0001 C CNN
F 3 "Passives.lib" H 4450 1930 60  0001 C CNN
	1    4450 2000
	0    -1   1    0   
$EndComp
$Comp
L power:GND #PWR0150
U 1 1 5D3DCF93
P 3150 1550
F 0 "#PWR0150" H 3150 1300 50  0001 C CNN
F 1 "GND" H 3155 1377 50  0000 C CNN
F 2 "" H 3150 1550 50  0001 C CNN
F 3 "" H 3150 1550 50  0001 C CNN
	1    3150 1550
	1    0    0    -1  
$EndComp
$Comp
L power:GND #PWR0154
U 1 1 5D3DCFE2
P 2450 1900
F 0 "#PWR0154" H 2450 1650 50  0001 C CNN
F 1 "GND" H 2455 1727 50  0000 C CNN
F 2 "" H 2450 1900 50  0001 C CNN
F 3 "" H 2450 1900 50  0001 C CNN
	1    2450 1900
	0    1    1    0   
$EndComp
Wire Wire Line
	3150 1550 3150 1500
Wire Wire Line
	3150 1500 3050 1500
Wire Wire Line
	2850 1500 2800 1500
Wire Wire Line
	2550 1500 2450 1500
Connection ~ 2450 1500
Wire Wire Line
	2800 1500 2800 1250
Wire Wire Line
	2800 1250 3150 1250
Connection ~ 2800 1500
Wire Wire Line
	2800 1500 2750 1500
Text Label 6700 3700 0    50   ~ 0
JTDI
Text Label 6400 4200 0    50   ~ 0
JTDO_TRACES
Text Label 6400 3500 0    50   ~ 0
JTMS_SWDIO
Text Label 6400 3600 0    50   ~ 0
JTCK_SWCLK
Text Label 2800 1250 0    50   ~ 0
VBATT_MEAS
Wire Wire Line
	9300 3300 9700 3300
$Comp
L Passives:CapNonPolar C5
U 1 1 5D442BAC
P 4750 2800
F 0 "C5" H 4750 3016 39  0000 C CNN
F 1 "4.7uF" H 4750 2941 39  0000 C CNN
F 2 "Capacitors_SMD:C_0603" H 4700 2850 60  0001 C CNN
F 3 "" H 4700 2850 60  0001 C CNN
	1    4750 2800
	0    1    1    0   
$EndComp
Wire Wire Line
	4750 2700 4750 2600
Wire Wire Line
	4750 2600 4950 2600
$Comp
L power:GND #PWR0158
U 1 1 5D4479FC
P 4750 2900
F 0 "#PWR0158" H 4750 2650 50  0001 C CNN
F 1 "GND" H 4755 2727 50  0000 C CNN
F 2 "" H 4750 2900 50  0001 C CNN
F 3 "" H 4750 2900 50  0001 C CNN
	1    4750 2900
	1    0    0    -1  
$EndComp
$Comp
L Passives:Resistor R6
U 1 1 5D447B20
P 4600 2550
AR Path="/5D447B20" Ref="R6"  Part="1" 
AR Path="/5CC7450C/5D447B20" Ref="R?"  Part="1" 
AR Path="/5D04372C/5D447B20" Ref="R?"  Part="1" 
F 0 "R6" H 4600 2745 50  0000 C CNN
F 1 "10k" H 4600 2654 50  0000 C CNN
F 2 "Resistors_SMD:R_0402" H 4600 2480 60  0001 C CNN
F 3 "Passives.lib" H 4600 2480 60  0001 C CNN
	1    4600 2550
	0    -1   1    0   
$EndComp
Wire Wire Line
	4600 2450 4600 2400
Wire Wire Line
	4600 2400 4950 2400
$Comp
L power:GND #PWR0159
U 1 1 5D44CDAA
P 4600 2650
F 0 "#PWR0159" H 4600 2400 50  0001 C CNN
F 1 "GND" H 4605 2477 50  0000 C CNN
F 2 "" H 4600 2650 50  0001 C CNN
F 3 "" H 4600 2650 50  0001 C CNN
	1    4600 2650
	1    0    0    -1  
$EndComp
Wire Wire Line
	4450 2200 4950 2200
Text Label 9350 3300 0    50   ~ 0
IR_BEACON_OUT
$Comp
L power:+3.3V #PWR0160
U 1 1 5D4729D9
P 2500 2050
F 0 "#PWR0160" H 2500 1900 50  0001 C CNN
F 1 "+3.3V" H 2515 2223 50  0000 C CNN
F 2 "" H 2500 2050 50  0001 C CNN
F 3 "" H 2500 2050 50  0001 C CNN
	1    2500 2050
	-1   0    0    1   
$EndComp
Wire Wire Line
	4450 2100 4450 2200
$Comp
L power:+3.3V #PWR0162
U 1 1 5D4885A1
P 4450 1900
F 0 "#PWR0162" H 4450 1750 50  0001 C CNN
F 1 "+3.3V" H 4465 2073 50  0000 C CNN
F 2 "" H 4450 1900 50  0001 C CNN
F 3 "" H 4450 1900 50  0001 C CNN
	1    4450 1900
	1    0    0    -1  
$EndComp
Wire Wire Line
	6350 3500 6850 3500
Wire Wire Line
	6350 3600 6850 3600
Wire Wire Line
	6350 3700 6850 3700
Wire Wire Line
	6350 4200 6850 4200
$Comp
L Passives:Resistor R1
U 1 1 5D4A440E
P 1350 7200
AR Path="/5D4A440E" Ref="R1"  Part="1" 
AR Path="/5CC7450C/5D4A440E" Ref="R?"  Part="1" 
AR Path="/5D04372C/5D4A440E" Ref="R?"  Part="1" 
F 0 "R1" H 1350 7395 50  0000 C CNN
F 1 "3k" H 1350 7304 50  0000 C CNN
F 2 "Resistors_SMD:R_0402" H 1350 7130 60  0001 C CNN
F 3 "Passives.lib" H 1350 7130 60  0001 C CNN
	1    1350 7200
	0    -1   1    0   
$EndComp
$Comp
L Passives:Resistor R3
U 1 1 5D4A4762
P 1700 7200
AR Path="/5D4A4762" Ref="R3"  Part="1" 
AR Path="/5CC7450C/5D4A4762" Ref="R?"  Part="1" 
AR Path="/5D04372C/5D4A4762" Ref="R?"  Part="1" 
F 0 "R3" H 1700 7395 50  0000 C CNN
F 1 "3k" H 1700 7304 50  0000 C CNN
F 2 "Resistors_SMD:R_0402" H 1700 7130 60  0001 C CNN
F 3 "Passives.lib" H 1700 7130 60  0001 C CNN
	1    1700 7200
	0    -1   1    0   
$EndComp
Wire Wire Line
	1350 7300 1350 7450
Wire Wire Line
	1350 7450 1050 7450
Wire Wire Line
	1700 7300 1700 7550
Wire Wire Line
	1700 7550 1050 7550
Wire Wire Line
	1350 7100 1350 7050
Wire Wire Line
	1350 7050 1500 7050
Wire Wire Line
	1700 7050 1700 7100
Wire Wire Line
	1500 7050 1500 7000
Connection ~ 1500 7050
Wire Wire Line
	1500 7050 1700 7050
$Comp
L power:+3.3V #PWR0204
U 1 1 5D4BBEE6
P 1500 7000
F 0 "#PWR0204" H 1500 6850 50  0001 C CNN
F 1 "+3.3V" H 1515 7173 50  0000 C CNN
F 2 "" H 1500 7000 50  0001 C CNN
F 3 "" H 1500 7000 50  0001 C CNN
	1    1500 7000
	1    0    0    -1  
$EndComp
Text Label 1050 7550 0    50   ~ 0
I2C_SDA
Text Label 1050 7450 0    50   ~ 0
I2C_SCL
Wire Wire Line
	5450 5500 5450 5550
Wire Wire Line
	5450 5550 5550 5550
Wire Wire Line
	5850 5550 5850 5500
Wire Wire Line
	5750 5500 5750 5550
Connection ~ 5750 5550
Wire Wire Line
	5750 5550 5850 5550
Wire Wire Line
	5650 5500 5650 5550
Connection ~ 5650 5550
Wire Wire Line
	5650 5550 5750 5550
Wire Wire Line
	5550 5500 5550 5550
Connection ~ 5550 5550
Wire Wire Line
	5550 5550 5650 5550
$Comp
L power:GND #PWR0205
U 1 1 5D4D87B6
P 5650 5600
F 0 "#PWR0205" H 5650 5350 50  0001 C CNN
F 1 "GND" H 5655 5427 50  0000 C CNN
F 2 "" H 5650 5600 50  0001 C CNN
F 3 "" H 5650 5600 50  0001 C CNN
	1    5650 5600
	1    0    0    -1  
$EndComp
Wire Wire Line
	5650 5550 5650 5600
Text Label 4450 3800 0    50   ~ 0
VBATT_MEAS
Text Label 6400 2400 0    50   ~ 0
IR_BEACON_OUT
Text Label 6500 4600 0    50   ~ 0
USART_RX
Wire Wire Line
	6350 4600 6850 4600
Text Label 6500 4500 0    50   ~ 0
USART_TX
Text Label 6550 3000 0    50   ~ 0
I2C_SCL
Text Label 4450 4700 0    50   ~ 0
I2C_SDA
Wire Wire Line
	900  3150 1400 3150
Wire Wire Line
	900  3350 1400 3350
Text Label 1150 1300 0    50   ~ 0
VBATT
$Comp
L power:GND #PWR02
U 1 1 5D4B80DA
P 1900 2950
F 0 "#PWR02" H 1900 2700 50  0001 C CNN
F 1 "GND" H 1905 2777 50  0000 C CNN
F 2 "" H 1900 2950 50  0001 C CNN
F 3 "" H 1900 2950 50  0001 C CNN
	1    1900 2950
	0    -1   -1   0   
$EndComp
Text Label 900  3150 0    50   ~ 0
M1_PWM
Text Label 900  3350 0    50   ~ 0
M2_PWM
Text Label 6550 3200 0    50   ~ 0
M1_PWM
Text Label 6550 3300 0    50   ~ 0
M2_PWM
Text Label 6600 2900 0    50   ~ 0
LED_DI
Text Label 6550 2700 0    50   ~ 0
LED_CLK
Text Label 6450 5200 0    50   ~ 0
ACCEL_INT
Wire Wire Line
	6350 3000 6850 3000
Wire Wire Line
	4450 4700 4950 4700
Wire Wire Line
	8750 1550 8300 1550
Wire Wire Line
	8750 1650 8300 1650
Wire Wire Line
	8750 1750 8300 1750
Text Label 8300 1550 0    50   ~ 0
LED_R
Text Label 8300 1650 0    50   ~ 0
LED_G
Text Label 8300 1750 0    50   ~ 0
LED_B
Text Label 4450 4600 0    50   ~ 0
LED_B
Text Label 4450 4500 0    50   ~ 0
LED_G
Text Label 4450 4800 0    50   ~ 0
EXT1_CLK
Text Label 4450 5000 0    50   ~ 0
EXT1_DI
Text Label 4450 4400 0    50   ~ 0
LED_R
Text Label 6500 5100 0    50   ~ 0
EXT0_CLK
Text Label 6550 5300 0    50   ~ 0
EXT0_DI
Wire Wire Line
	6350 2400 6850 2400
Wire Wire Line
	6350 2900 6850 2900
Wire Wire Line
	6350 2700 6850 2700
Wire Wire Line
	6350 5100 6850 5100
Wire Wire Line
	6350 5300 6850 5300
Wire Wire Line
	4950 5000 4450 5000
Wire Wire Line
	4950 4800 4450 4800
Wire Wire Line
	4950 4600 4450 4600
Wire Wire Line
	4950 4500 4450 4500
Wire Wire Line
	4950 4400 4450 4400
Wire Wire Line
	6350 5200 6850 5200
Wire Wire Line
	4450 3800 4950 3800
$Comp
L Connector_Generic:Conn_01x03 J5
U 1 1 5DEC3E9F
P 7850 3050
F 0 "J5" H 7930 3092 50  0000 L CNN
F 1 "Conn_01x03" H 7930 3001 50  0000 L CNN
F 2 "" H 7850 3050 50  0001 C CNN
F 3 "~" H 7850 3050 50  0001 C CNN
	1    7850 3050
	1    0    0    -1  
$EndComp
$Comp
L Connector_Generic:Conn_01x02 J6
U 1 1 5DEC4058
P 7850 3350
F 0 "J6" H 7930 3342 50  0000 L CNN
F 1 "Conn_01x02" H 7930 3251 50  0000 L CNN
F 2 "" H 7850 3350 50  0001 C CNN
F 3 "~" H 7850 3350 50  0001 C CNN
	1    7850 3350
	1    0    0    -1  
$EndComp
Wire Wire Line
	7150 3200 7150 2950
Wire Wire Line
	7150 2950 7650 2950
Wire Wire Line
	6350 3200 7150 3200
Wire Wire Line
	7650 3350 7150 3350
Wire Wire Line
	7150 3350 7150 3300
Wire Wire Line
	6350 3300 7150 3300
$Comp
L power:GND #PWR010
U 1 1 5DED484E
P 7600 3550
F 0 "#PWR010" H 7600 3300 50  0001 C CNN
F 1 "GND" H 7605 3377 50  0000 C CNN
F 2 "" H 7600 3550 50  0001 C CNN
F 3 "" H 7600 3550 50  0001 C CNN
	1    7600 3550
	1    0    0    -1  
$EndComp
Text Label 7500 2850 1    50   ~ 0
VBATT
Wire Wire Line
	7650 3050 7500 3050
Wire Wire Line
	7500 3050 7500 2650
Wire Wire Line
	7600 3550 7600 3450
Wire Wire Line
	7600 3450 7650 3450
Wire Wire Line
	7600 3150 7650 3150
Wire Wire Line
	7600 3150 7600 3450
Connection ~ 7600 3450
Wire Wire Line
	2450 1900 2550 1900
Wire Wire Line
	2500 2050 2500 2000
Wire Wire Line
	2500 2000 2550 2000
Wire Wire Line
	2450 1300 2450 1500
Text Label 4450 3300 0    50   ~ 0
MORE_MAGIC
Wire Wire Line
	6350 4500 6850 4500
Wire Wire Line
	4950 3600 4450 3600
Text Label 4450 3600 0    50   ~ 0
MAGIC
$Comp
L mechanical:MountingHole H1
U 1 1 610425D9
P 3450 7600
F 0 "H1" H 3550 7646 50  0000 L CNN
F 1 "MountingHole" H 3550 7555 50  0000 L CNN
F 2 "Mounting_Holes:MountingHole_3.2mm_M3_Pad" H 3450 7600 50  0001 C CNN
F 3 "~" H 3450 7600 50  0001 C CNN
	1    3450 7600
	1    0    0    -1  
$EndComp
$Comp
L mechanical:MountingHole H2
U 1 1 6104286A
P 4150 7600
F 0 "H2" H 4250 7646 50  0000 L CNN
F 1 "MountingHole" H 4250 7555 50  0000 L CNN
F 2 "Mounting_Holes:MountingHole_3.2mm_M3_Pad" H 4150 7600 50  0001 C CNN
F 3 "~" H 4150 7600 50  0001 C CNN
	1    4150 7600
	1    0    0    -1  
$EndComp
$Comp
L Connector_Generic:Conn_01x02 J8
U 1 1 61092254
P 1550 1000
F 0 "J8" V 1516 1080 50  0000 L CNN
F 1 "Link Connector" V 1425 1080 50  0000 L CNN
F 2 "U_Connectors:TE_AMP_2Pin_Male" H 1550 1000 50  0001 C CNN
F 3 "~" H 1550 1000 50  0001 C CNN
	1    1550 1000
	0    1    -1   0   
$EndComp
Wire Wire Line
	1100 1300 1450 1300
Wire Wire Line
	1450 1300 1450 1200
Wire Wire Line
	1550 1200 1550 1300
Wire Wire Line
	1550 1300 2450 1300
Text Label 1750 1300 0    50   ~ 0
VBATT_FUSED
$Comp
L power:GND #PWR0115
U 1 1 610B05D6
P 1200 1500
F 0 "#PWR0115" H 1200 1250 50  0001 C CNN
F 1 "GND" H 1205 1327 50  0000 C CNN
F 2 "" H 1200 1500 50  0001 C CNN
F 3 "" H 1200 1500 50  0001 C CNN
	1    1200 1500
	1    0    0    -1  
$EndComp
Wire Wire Line
	1100 1400 1200 1400
Wire Wire Line
	1200 1400 1200 1500
Wire Wire Line
	900  2400 1300 2400
Wire Wire Line
	1300 2400 1300 2600
Wire Wire Line
	900  2600 1300 2600
Connection ~ 1300 2600
Text Label 1400 2600 0    50   ~ 0
VBATT_FUSED
Wire Wire Line
	900  2750 1300 2750
Wire Wire Line
	1300 2750 1300 2950
Wire Wire Line
	900  2950 1300 2950
Connection ~ 1300 2950
Wire Wire Line
	1300 2950 1900 2950
Wire Wire Line
	1300 2600 1900 2600
Text Label 1450 2950 0    50   ~ 0
GND
Text Notes 800  3150 1    50   ~ 0
ESC Connections
$Comp
L Passives:Resistor R7
U 1 1 610C78F2
P 4150 3300
AR Path="/610C78F2" Ref="R7"  Part="1" 
AR Path="/5CC7450C/610C78F2" Ref="R?"  Part="1" 
AR Path="/5D04372C/610C78F2" Ref="R?"  Part="1" 
F 0 "R7" H 4150 3495 50  0000 C CNN
F 1 "10k" H 4150 3404 50  0000 C CNN
F 2 "Resistors_SMD:R_0402" H 4150 3230 60  0001 C CNN
F 3 "Passives.lib" H 4150 3230 60  0001 C CNN
	1    4150 3300
	-1   0    0    -1  
$EndComp
Wire Wire Line
	4250 3300 4950 3300
Wire Wire Line
	4050 3300 3650 3300
Text Label 3650 3300 0    50   ~ 0
IGNITE_PAD
$EndSCHEMATC
